@xrdef{Overview-title}{Introduction to Multiboot Specification}
@xrdef{Overview-snt}{Chapter@tie 1}
@xrdef{Motivation-title}{The background of Multiboot Specification}
@xrdef{Motivation-snt}{Section@tie 1.1}
@xrdef{Architecture-title}{The target architecture}
@xrdef{Architecture-snt}{Section@tie 1.2}
@xrdef{Operating systems-title}{The target operating systems}
@xrdef{Operating systems-snt}{Section@tie 1.3}
@xrdef{Boot sources-title}{Boot sources}
@xrdef{Boot sources-snt}{Section@tie 1.4}
@xrdef{Overview-pg}{1}
@xrdef{Motivation-pg}{1}
@xrdef{Architecture-pg}{1}
@xrdef{Operating systems-pg}{1}
@xrdef{Boot sources-pg}{1}
@xrdef{Boot-time configuration-title}{Configure an operating system at boot-time}
@xrdef{Boot-time configuration-snt}{Section@tie 1.5}
@xrdef{Convenience to operating systems-title}{How to make OS development easier}
@xrdef{Convenience to operating systems-snt}{Section@tie 1.6}
@xrdef{Boot modules-title}{Boot modules}
@xrdef{Boot modules-snt}{Section@tie 1.7}
@xrdef{Boot-time configuration-pg}{2}
@xrdef{Convenience to operating systems-pg}{2}
@xrdef{Boot modules-pg}{2}
@xrdef{Terminology-title}{The definitions of terms used through the specification}
@xrdef{Terminology-snt}{Chapter@tie 2}
@xrdef{Terminology-pg}{4}
@xrdef{Specification-title}{The exact definitions of Multiboot Specification}
@xrdef{Specification-snt}{Chapter@tie 3}
@xrdef{OS image format-title}{OS image format}
@xrdef{OS image format-snt}{Section@tie 3.1}
@xrdef{Header layout-title}{The layout of Multiboot header}
@xrdef{Header layout-snt}{Section@tie 3.1.1}
@xrdef{Header magic fields-title}{The magic fields of Multiboot header}
@xrdef{Header magic fields-snt}{Section@tie 3.1.2}
@xrdef{Specification-pg}{5}
@xrdef{OS image format-pg}{5}
@xrdef{Header layout-pg}{5}
@xrdef{Header magic fields-pg}{5}
@xrdef{Header tags-title}{General tag structure}
@xrdef{Header tags-snt}{Section@tie 3.1.3}
@xrdef{Information request header tag-title}{Multiboot information request}
@xrdef{Information request header tag-snt}{Section@tie 3.1.4}
@xrdef{Address header tag-title}{The address tag of Multiboot header}
@xrdef{Address header tag-snt}{Section@tie 3.1.5}
@xrdef{Header tags-pg}{6}
@xrdef{Information request header tag-pg}{6}
@xrdef{Address header tag-pg}{6}
@xrdef{Console header tags-title}{Flags tag}
@xrdef{Console header tags-snt}{Section@tie 3.1.7}
@xrdef{Console header tags-pg}{7}
@xrdef{Module alignment tag-title}{Module alignment tag}
@xrdef{Module alignment tag-snt}{Section@tie 3.1.9}
@xrdef{EFI boot services-title}{EFI boot services}
@xrdef{EFI boot services-snt}{Section@tie 3.1.10}
@xrdef{Machine state-title}{MIPS machine state}
@xrdef{Machine state-snt}{Section@tie 3.2}
@xrdef{Module alignment tag-pg}{8}
@xrdef{EFI boot services-pg}{8}
@xrdef{Machine state-pg}{9}
@xrdef{Boot information format-title}{Boot information}
@xrdef{Boot information format-snt}{Section@tie 3.4}
@xrdef{Boot information format-pg}{10}
@xrdef{Examples-title}{Examples}
@xrdef{Examples-snt}{Chapter@tie 4}
@xrdef{Notes on PC-title}{Notes on PC}
@xrdef{Notes on PC-snt}{Section@tie 4.1}
@xrdef{BIOS device mapping techniques-title}{BIOS device mapping techniques}
@xrdef{BIOS device mapping techniques-snt}{Section@tie 4.2}
@xrdef{Data comparison technique-title}{Data comparison technique}
@xrdef{Data comparison technique-snt}{Section@tie 4.2.1}
@xrdef{I/O restriction technique-title}{I/O restriction technique}
@xrdef{I/O restriction technique-snt}{Section@tie 4.2.2}
@xrdef{Examples-pg}{18}
@xrdef{Notes on PC-pg}{18}
@xrdef{BIOS device mapping techniques-pg}{18}
@xrdef{Data comparison technique-pg}{18}
@xrdef{Example OS code-title}{Example OS code}
@xrdef{Example OS code-snt}{Section@tie 4.3}
@xrdef{multiboot2.h-title}{multiboot2.h}
@xrdef{multiboot2.h-snt}{Section@tie 4.3.1}
@xrdef{I/O restriction technique-pg}{19}
@xrdef{Example OS code-pg}{19}
@xrdef{multiboot2.h-pg}{19}
@xrdef{boot.S-title}{boot.S}
@xrdef{boot.S-snt}{Section@tie 4.3.2}
@xrdef{boot.S-pg}{28}
@xrdef{kernel.c-title}{kernel.c}
@xrdef{kernel.c-snt}{Section@tie 4.3.3}
@xrdef{kernel.c-pg}{30}
@xrdef{Other Multiboot kernels-title}{Other Multiboot kernels}
@xrdef{Other Multiboot kernels-snt}{Section@tie 4.3.4}
@xrdef{Example boot loader code-title}{Example boot loader code}
@xrdef{Example boot loader code-snt}{Section@tie 4.4}
@xrdef{Other Multiboot kernels-pg}{38}
@xrdef{Example boot loader code-pg}{38}
@xrdef{History-title}{The change log of this specification}
@xrdef{History-snt}{Chapter@tie 5}
@xrdef{History-pg}{39}
@xrdef{Index-title}{Index}
@xrdef{Index-snt}{}
@xrdef{Index-pg}{40}
